<?xml version="1.0" encoding="UTF-8"?>
<svg width="153px" height="171px" viewBox="0 0 153 171" version="1.1" xmlns="http://www.w3.org/2000/svg" xmlns:xlink="http://www.w3.org/1999/xlink">
    <!-- Generator: Sketch 49.1 (51147) - http://www.bohemiancoding.com/sketch -->
    <title>Page 1</title>
    <desc>Created with Sketch.</desc>
    <defs>
        <polygon id="path-1" points="0.482952016 0.744 78.407 0.744 78.407 68.049786 0.482952016 68.049786"></polygon>
        <polygon id="path-3" points="0 0.941 7.6998 0.941 7.6998 9.936 0 9.936"></polygon>
        <polygon id="path-5" points="0 171.256 152.179 171.256 152.179 1 0 1"></polygon>
    </defs>
    <g id="Page-1" stroke="none" stroke-width="1" fill="none" fill-rule="evenodd">
        <g id="v" transform="translate(-307.000000, -86.000000)">
            <g id="Page-1" transform="translate(307.000000, 85.000000)">
                <g id="Group-3" transform="translate(38.000000, 0.256000)">
                    <mask id="mask-2" fill="white">
                        <use xlink:href="#path-1"></use>
                    </mask>
                    <g id="Clip-2"></g>
                    <path d="M6.042,59.3246 C6.234,60.0376 6.333,60.4146 6.438,60.7916 C7.285,63.8356 10.666,65.9926 14.021,65.6326 C17.321,65.2786 19.618,62.6886 19.649,59.2886 C19.667,57.3766 18.706,56.1536 16.737,55.6656 C15.831,55.4416 14.876,55.3826 13.986,55.1186 C11.34,54.3346 8.705,53.5126 6.089,52.6446 C5.35,52.3996 4.881,52.4756 4.506,53.1336 C3.986,54.0436 3.391,54.9156 2.911,55.8426 C1.99,57.6236 2.388,59.5806 3.872,61.0556 C4.544,60.5206 5.216,59.9836 6.042,59.3246 M10.414,51.8686 C10.409,51.9686 10.403,52.0696 10.398,52.1696 C10.847,52.2816 11.29,52.4286 11.746,52.4976 C12.896,52.6736 14.057,52.7836 15.203,52.9746 C17.539,53.3646 19.868,53.7886 21.885,55.0986 C23.473,56.1306 23.489,56.1596 22.933,57.8536 C22.81,58.2286 22.664,58.5966 22.539,58.9706 C22.288,59.7216 22.508,60.0136 23.398,59.9396 C26.021,59.7206 28.668,59.7006 31.27,59.3536 C34.195,58.9636 37.167,58.5536 39.964,57.6956 C44.132,56.4156 46.222,53.3026 46.053,49.1466 C45.97,47.0796 45.632,45.0206 45.34,42.9666 C45.213,42.0776 45.438,41.7326 46.439,41.7616 C48.509,41.8206 50.582,41.8206 52.651,41.7656 C54.536,41.7156 56.409,41.5246 58.09,40.5826 C59.483,39.8016 59.487,39.6596 58.274,38.6346 C55.417,36.2176 51.91,35.1986 48.297,34.3906 C46.379,33.9626 44.47,33.4996 42.281,32.9876 C44.121,32.0046 45.847,31.7896 47.587,31.5736 C54.23,30.7476 60.769,34.9516 62.329,41.1436 C62.432,41.5526 62.213,42.3066 61.886,42.4936 C60.453,43.3126 58.998,44.3236 57.417,44.6236 C55.199,45.0446 52.862,44.9056 50.576,44.9886 C49.809,45.0166 49.039,44.9926 48.055,44.9926 C49.995,49.8896 49.059,54.1316 45.578,57.8296 C45.785,57.9866 45.843,58.0676 45.9,58.0676 C50.23,58.0856 54.559,58.1086 58.888,58.0826 C59.146,58.0816 59.546,57.7386 59.635,57.4786 C61.583,51.8206 63.073,46.0606 63.241,40.0796 C63.365,35.6676 62.849,31.2886 61.871,26.9726 C60.614,21.4186 58.146,16.4226 54.171,12.1306 C53.594,11.5076 53.053,11.2966 52.211,11.5976 C51.053,12.0116 49.847,12.3046 48.676,12.6896 C42.107,14.8516 35.833,17.5766 30.193,21.5016 C29.734,21.8216 29.328,22.2096 28.744,22.6926 C32.181,23.3406 35.357,23.8606 38.597,23.4566 C41.529,23.0926 44.419,22.5466 46.543,20.3196 C47.478,19.3396 48.335,18.2936 49.256,17.3016 C50.351,16.1216 51.477,14.9666 52.588,13.8006 C53.003,14.6776 53.077,15.3856 53.256,16.0696 C53.73,17.8826 53.46,19.5926 52.309,21.0756 C50.772,23.0556 49.164,24.9916 47.474,26.8546 C46.601,27.8176 45.38,28.3686 43.978,28.3726 C38.48,28.3876 32.982,28.4106 27.484,28.3896 C26.833,28.3876 26.119,28.2536 25.543,27.9766 C22.207,26.3746 18.259,27.7156 17.11,31.1276 C16.516,32.8936 16.337,34.8376 16.289,36.7076 C16.227,39.1706 16.549,41.6396 16.563,44.1066 C16.569,45.3086 16.373,46.5406 16.057,47.7076 C15.324,50.4156 13.275,51.6566 10.414,51.8686 M50.971,8.9556 C47.202,5.3376 42.481,3.5856 37.984,1.2716 C39.222,0.6886 40.419,0.6776 41.642,0.8186 C47.778,1.5246 52.915,4.2406 57.429,8.0906 C63.934,13.6386 67.599,20.6916 68.997,28.8096 C69.615,32.3996 70.122,36.0386 70.231,39.6676 C70.408,45.5526 69.74,51.3816 67.706,57.0026 C67.601,57.2956 67.537,57.6016 67.406,58.0746 L73.535,58.0746 C72.771,59.1656 72.203,60.0876 71.503,60.9086 C71.287,61.1626 70.712,61.2296 70.301,61.2306 C61.038,61.2476 51.775,61.2436 42.513,61.2436 C39.161,61.2436 35.81,61.2266 32.459,61.2486 C28.967,61.2706 25.727,62.2436 22.623,63.6946 C22.497,63.7536 22.396,63.8606 22.016,64.1466 L78.407,64.1466 C77.663,65.2106 77.061,66.1366 76.375,67.0036 C76.224,67.1956 75.783,67.2486 75.474,67.2516 C66.327,67.3526 57.181,67.4216 48.034,67.5336 C38.1,67.6566 28.157,67.6436 18.232,68.0286 C12.483,68.2506 7.562,66.7306 3.199,63.3416 C-0.625,60.3696 -0.365,53.4816 3.688,50.7546 C4.534,50.1846 5.661,49.8386 6.701,49.7116 C11.962,49.0696 14.141,46.6736 13.809,41.5916 C13.637,38.9556 13.368,36.3246 13.052,33.7006 C13.005,33.3136 12.516,32.8716 12.113,32.6426 C9.511,31.1626 7.143,29.4156 5.097,27.2826 C4.874,27.0526 4.68,26.7976 4.349,26.4096 C9.292,25.2196 14.201,24.7796 19.408,24.3886 C18.84,23.6356 18.455,23.2396 18.206,22.7776 C16.979,20.4956 15.711,18.2286 14.613,15.8906 C14.055,14.7006 14.401,13.6776 15.253,12.9196 C16.039,13.9176 16.775,14.9456 17.611,15.8936 C18.819,17.2636 20.066,18.6066 21.359,19.9046 C22.711,21.2616 23.354,21.3186 25.145,20.4646 C30.754,17.7906 36.333,15.0596 41.987,12.4756 C44.589,11.2866 47.339,10.3896 50.021,9.3586 C50.223,9.2816 50.419,9.1906 50.971,8.9556" id="Fill-1" fill="#187F2E" mask="url(#mask-2)"></path>
                </g>
                <path d="M38.0723,73.8512 C38.7783,72.7062 39.2673,71.7832 39.9023,70.9602 C40.0943,70.7102 40.6853,70.6532 41.0943,70.6522 C51.2993,70.6362 61.5033,70.6392 71.7073,70.6392 L94.5263,70.6392 L96.0653,70.6392 C91.9633,74.6792 87.3663,77.3482 81.8583,78.4652 C75.7163,79.7112 69.9653,78.5512 64.5413,75.6632 C70.5413,75.7312 76.5853,76.3752 82.3413,74.2202 C82.3333,74.0972 82.3253,73.9742 82.3173,73.8512 L38.0723,73.8512 Z" id="Fill-4" fill="#187F2E"></path>
                <path d="M66.6992,43.42 C67.5932,42.137 68.4662,40.839 69.3992,39.583 C69.5632,39.363 69.9772,39.213 70.2822,39.203 C71.5092,39.161 72.7372,39.186 74.0672,39.186 C73.8402,40.977 72.6362,42.039 71.5462,43.129 C70.2312,44.443 68.5312,43.35 67.0602,43.794 C66.9402,43.67 66.8192,43.545 66.6992,43.42" id="Fill-6" fill="#187F2E"></path>
                <path d="M63.1855,41.7301 C63.4925,39.8131 64.0895,37.8401 65.7315,36.2811 C66.3335,35.7091 66.9605,35.4311 67.8455,35.7251 C68.6055,35.9781 69.4195,36.0831 70.0515,36.2191 C67.7535,38.0631 65.4305,39.9271 63.1855,41.7301" id="Fill-8" fill="#187F2E"></path>
                <path d="M49.7148,62.0572 C48.4428,61.6212 47.3078,61.2322 46.0338,60.7962 C46.3908,60.1662 46.6368,59.6592 46.9478,59.1922 C47.7558,57.9812 48.9148,57.7882 50.0348,58.7082 C50.2308,58.8692 50.3158,59.2762 50.2748,59.5442 C50.1538,60.3112 49.9438,61.0662 49.7148,62.0572" id="Fill-10" fill="#187F2E"></path>
                <g id="Group-14" transform="translate(0.000000, 161.256000)">
                    <mask id="mask-4" fill="white">
                        <use xlink:href="#path-3"></use>
                    </mask>
                    <g id="Clip-13"></g>
                    <path d="M6.3018,8.914 C6.7758,8.61 7.0118,8.141 7.0118,7.507 C7.0118,6.873 6.7758,6.407 6.3018,6.107 C5.8288,5.807 5.1338,5.657 4.2148,5.657 L0.6898,5.657 L0.6898,9.371 L4.2148,9.371 C5.1338,9.371 5.8288,9.218 6.3018,8.914 Z M0.6898,1.507 L0.6898,5.092 L3.9178,5.092 C4.7458,5.092 5.3838,4.94 5.8288,4.636 C6.2758,4.331 6.4978,3.884 6.4978,3.292 C6.4978,2.71 6.2758,2.267 5.8288,1.963 C5.3838,1.659 4.7458,1.507 3.9178,1.507 L0.6898,1.507 Z M7.1668,6.055 C7.5228,6.441 7.6998,6.942 7.6998,7.559 C7.6998,8.321 7.4078,8.908 6.8228,9.319 C6.2368,9.73 5.3668,9.936 4.2148,9.936 L-0.0002,9.936 L-0.0002,0.941 L3.9448,0.941 C4.9718,0.941 5.7708,1.141 6.3428,1.539 C6.9138,1.937 7.1998,2.504 7.1998,3.241 C7.1998,3.755 7.0588,4.188 6.7758,4.539 C6.4908,4.891 6.1068,5.143 5.6198,5.297 C6.2958,5.417 6.8118,5.67 7.1668,6.055 Z" id="Fill-12" fill="#000000" mask="url(#mask-4)"></path>
                </g>
                <mask id="mask-6" fill="white">
                    <use xlink:href="#path-5"></use>
                </mask>
                <g id="Clip-16"></g>
                <polygon id="Fill-15" fill="#000000" mask="url(#mask-6)" points="14.212 171.192 14.901 171.192 14.901 162.197 14.212 162.197"></polygon>
                <polygon id="Fill-17" fill="#000000" mask="url(#mask-6)" points="28.7744 170.6012 28.7744 171.1922 22.2504 171.1922 22.2504 162.1972 28.5724 162.1972 28.5724 162.7892 22.9394 162.7892 22.9394 166.3352 27.9774 166.3352 27.9774 166.9132 22.9394 166.9132 22.9394 170.6012"></polygon>
                <polygon id="Fill-18" fill="#000000" mask="url(#mask-6)" points="43.041 162.1973 43.041 171.1923 42.474 171.1923 36.029 163.3793 36.029 171.1923 35.341 171.1923 35.341 162.1973 35.922 162.1973 42.352 170.0093 42.352 162.1973"></polygon>
                <polygon id="Fill-19" fill="#000000" mask="url(#mask-6)" points="56.915 170.6012 56.915 171.1922 50.39 171.1922 50.39 162.1972 56.713 162.1972 56.713 162.7892 51.079 162.7892 51.079 166.3352 56.118 166.3352 56.118 166.9132 51.079 166.9132 51.079 170.6012"></polygon>
                <path d="M63.9863,170.9156 C63.3603,170.6886 62.8723,170.3946 62.5213,170.0356 L62.8323,169.5466 C63.1653,169.8816 63.6133,170.1536 64.1753,170.3626 C64.7393,170.5726 65.3313,170.6776 65.9523,170.6776 C66.8533,170.6776 67.5333,170.5156 67.9923,170.1896 C68.4523,169.8646 68.6813,169.4396 68.6813,168.9176 C68.6813,168.5156 68.5593,168.1936 68.3163,167.9536 C68.0733,167.7136 67.7713,167.5296 67.4123,167.4006 C67.0503,167.2726 66.5643,167.1396 65.9523,167.0026 C65.2583,166.8406 64.7033,166.6816 64.2843,166.5276 C63.8653,166.3736 63.5093,166.1356 63.2163,165.8146 C62.9243,165.4936 62.7783,165.0626 62.7783,164.5226 C62.7783,164.0856 62.8993,163.6856 63.1423,163.3216 C63.3853,162.9576 63.7573,162.6686 64.2573,162.4546 C64.7573,162.2396 65.3803,162.1326 66.1283,162.1326 C66.6503,162.1326 67.1643,162.2066 67.6683,162.3516 C68.1733,162.4976 68.6093,162.6946 68.9783,162.9426 L68.7213,163.4696 C68.3433,163.2206 67.9263,163.0326 67.4723,162.9036 C67.0173,162.7756 66.5693,162.7116 66.1283,162.7116 C65.2553,162.7116 64.5923,162.8786 64.1423,163.2116 C63.6913,163.5466 63.4663,163.9786 63.4663,164.5106 C63.4663,164.9126 63.5893,165.2336 63.8323,165.4746 C64.0753,165.7136 64.3763,165.8976 64.7363,166.0266 C65.0963,166.1546 65.5883,166.2916 66.2093,166.4376 C66.9023,166.6006 67.4563,166.7586 67.8713,166.9126 C68.2853,167.0666 68.6383,167.3006 68.9313,167.6136 C69.2243,167.9266 69.3703,168.3476 69.3703,168.8786 C69.3703,169.3156 69.2463,169.7146 68.9993,170.0736 C68.7513,170.4336 68.3713,170.7206 67.8573,170.9346 C67.3433,171.1486 66.7143,171.2556 65.9653,171.2556 C65.2723,171.2556 64.6123,171.1426 63.9863,170.9156" id="Fill-20" fill="#000000" mask="url(#mask-6)"></path>
                <path d="M86.6758,167.671 C87.6848,167.671 88.4548,167.459 88.9868,167.035 C89.5178,166.611 89.7828,166.009 89.7828,165.23 C89.7828,164.45 89.5178,163.849 88.9868,163.424 C88.4548,163.001 87.6848,162.789 86.6758,162.789 L83.9748,162.789 L83.9748,167.671 L86.6758,167.671 Z M89.8508,171.192 L87.5948,168.185 C87.2618,168.228 86.9548,168.249 86.6758,168.249 L83.9748,168.249 L83.9748,171.192 L83.2848,171.192 L83.2848,162.197 L86.6758,162.197 C87.8648,162.197 88.7968,162.465 89.4728,163.001 C90.1478,163.536 90.4858,164.279 90.4858,165.23 C90.4858,165.941 90.2938,166.538 89.9118,167.022 C89.5298,167.506 88.9818,167.847 88.2708,168.044 L90.6338,171.192 L89.8508,171.192 Z" id="Fill-21" fill="#000000" mask="url(#mask-6)"></path>
                <path d="M102.6582,168.108 L100.1722,162.917 L97.6992,168.108 L102.6582,168.108 Z M102.9142,168.66 L97.4292,168.66 L96.2262,171.192 L95.4842,171.192 L99.8342,162.197 L100.5222,162.197 L104.8732,171.192 L104.1302,171.192 L102.9142,168.66 Z" id="Fill-22" fill="#000000" mask="url(#mask-6)"></path>
                <path d="M110.641,171.192 L111.33,171.192 L111.33,162.197 L110.641,162.197 L110.641,171.192 Z M112.1,159.949 L113.073,159.949 L110.952,161.465 L110.223,161.465 L112.1,159.949 Z" id="Fill-23" fill="#000000" mask="url(#mask-6)"></path>
                <path d="M120.1719,170.6651 C119.4299,170.2711 118.8439,169.7271 118.4159,169.0331 C117.9879,168.3391 117.7749,167.5601 117.7749,166.6941 C117.7749,165.8301 117.9879,165.0501 118.4159,164.3561 C118.8439,163.6621 119.4299,163.1181 120.1719,162.7241 C120.9149,162.3301 121.7499,162.1331 122.6779,162.1331 C123.3619,162.1331 123.9929,162.2381 124.5689,162.4481 C125.1459,162.6581 125.6369,162.9681 126.0419,163.3791 L125.6089,163.8031 C124.8539,163.0931 123.8849,162.7371 122.7049,162.7371 C121.9119,162.7371 121.1929,162.9081 120.5439,163.2511 C119.8949,163.5931 119.3869,164.0671 119.0169,164.6701 C118.6479,165.2751 118.4629,165.9491 118.4629,166.6941 C118.4629,167.4401 118.6479,168.1141 119.0169,168.7181 C119.3869,169.3221 119.8949,169.7951 120.5439,170.1381 C121.1929,170.4811 121.9119,170.6521 122.7049,170.6521 C123.8759,170.6521 124.8439,170.2921 125.6089,169.5731 L126.0419,169.9971 C125.6369,170.4081 125.1439,170.7211 124.5629,170.9351 C123.9829,171.1491 123.3539,171.2561 122.6779,171.2561 C121.7499,171.2561 120.9149,171.0591 120.1719,170.6651" id="Fill-24" fill="#000000" mask="url(#mask-6)"></path>
                <polygon id="Fill-25" fill="#000000" mask="url(#mask-6)" points="138.9297 170.6012 138.9297 171.1922 132.4047 171.1922 132.4047 162.1972 138.7277 162.1972 138.7277 162.7892 133.0937 162.7892 133.0937 166.3352 138.1327 166.3352 138.1327 166.9132 133.0937 166.9132 133.0937 170.6012"></polygon>
                <path d="M146.001,170.9156 C145.375,170.6886 144.887,170.3946 144.536,170.0356 L144.847,169.5466 C145.18,169.8816 145.628,170.1536 146.19,170.3626 C146.754,170.5726 147.346,170.6776 147.967,170.6776 C148.868,170.6776 149.548,170.5156 150.008,170.1896 C150.467,169.8646 150.696,169.4396 150.696,168.9176 C150.696,168.5156 150.574,168.1936 150.332,167.9536 C150.089,167.7136 149.786,167.5296 149.427,167.4006 C149.065,167.2726 148.58,167.1396 147.967,167.0026 C147.273,166.8406 146.718,166.6816 146.299,166.5276 C145.88,166.3736 145.524,166.1356 145.231,165.8146 C144.939,165.4936 144.793,165.0626 144.793,164.5226 C144.793,164.0856 144.914,163.6856 145.157,163.3216 C145.4,162.9576 145.772,162.6686 146.272,162.4546 C146.772,162.2396 147.395,162.1326 148.143,162.1326 C148.665,162.1326 149.179,162.2066 149.684,162.3516 C150.188,162.4976 150.624,162.6946 150.993,162.9426 L150.736,163.4696 C150.358,163.2206 149.941,163.0326 149.487,162.9036 C149.032,162.7756 148.584,162.7116 148.143,162.7116 C147.27,162.7116 146.607,162.8786 146.157,163.2116 C145.707,163.5466 145.481,163.9786 145.481,164.5106 C145.481,164.9126 145.604,165.2336 145.847,165.4746 C146.09,165.7136 146.391,165.8976 146.751,166.0266 C147.111,166.1546 147.603,166.2916 148.224,166.4376 C148.917,166.6006 149.471,166.7586 149.886,166.9126 C150.3,167.0666 150.653,167.3006 150.946,167.6136 C151.239,167.9266 151.385,168.3476 151.385,168.8786 C151.385,169.3156 151.261,169.7146 151.014,170.0736 C150.766,170.4336 150.386,170.7206 149.872,170.9346 C149.358,171.1486 148.729,171.2556 147.98,171.2556 C147.287,171.2556 146.628,171.1426 146.001,170.9156" id="Fill-26" fill="#000000" mask="url(#mask-6)"></path>
                <path d="M21.1094,97.4469 L15.2204,113.5349 C16.9324,113.6399 18.8214,113.6919 20.8864,113.6919 C23.0464,113.6919 25.1104,113.6399 27.0834,113.5349 L21.1094,97.4469 Z M2.8044,127.8009 C4.5524,127.6959 5.6314,127.4979 6.0414,127.2059 C6.3204,126.9979 6.7564,126.2049 7.3524,124.8279 C8.4864,122.1169 9.9374,118.3529 11.7044,113.5349 L21.5814,86.4129 L25.6824,86.4129 L38.2934,120.0099 C39.9294,124.2509 40.9384,126.5729 41.3204,126.9789 C41.7014,127.3839 42.8784,127.6579 44.8494,127.8009 L44.8494,130.6469 C41.8184,130.5009 38.9554,130.4279 36.2594,130.4279 C33.0434,130.4279 29.9854,130.5009 27.0844,130.6469 L27.0844,127.8009 C29.2974,127.6979 30.5754,127.5609 30.9194,127.3879 C31.2634,127.2149 31.4354,126.9049 31.4354,126.4559 C31.4354,126.0689 31.0454,124.7439 30.2634,122.4829 L28.4234,117.2579 C26.1144,117.1959 23.5354,117.1639 20.6854,117.1639 C18.2094,117.1639 15.9554,117.1959 13.9244,117.2579 L12.6994,120.7719 C12.3644,121.7299 11.9564,123.1559 11.4724,125.0499 C11.3614,125.4779 11.3054,125.8649 11.3054,126.2109 C11.3054,126.6799 11.4864,127.0099 11.8494,127.2039 C12.2114,127.3979 13.5174,127.5969 15.7664,127.8009 L15.7664,130.6469 C13.9444,130.5009 11.6764,130.4279 8.9634,130.4279 C6.3814,130.4279 4.3284,130.5009 2.8044,130.6469 L2.8044,127.8009 Z" id="Fill-27" fill="#000000" mask="url(#mask-6)"></path>
                <path d="M55.5625,109.168 C55.5625,112.303 55.9735,114.509 56.7965,115.784 C57.6195,117.058 58.7975,117.696 60.3335,117.696 C61.7375,117.696 62.8285,117.137 63.6045,116.019 C64.3805,114.9 64.7695,113.15 64.7695,110.767 C64.7695,108.155 64.3675,106.253 63.5635,105.062 C62.7585,103.87 61.6255,103.274 60.1665,103.274 C58.7605,103.274 57.6415,103.792 56.8105,104.826 C55.9785,105.861 55.5625,107.308 55.5625,109.168 Z M56.2045,131.429 C54.6415,132.725 53.6245,133.801 53.1495,134.659 C52.6745,135.516 52.4375,136.498 52.4375,137.606 C52.4375,139.614 53.1345,141.239 54.5305,142.483 C55.9255,143.727 57.9805,144.349 60.6965,144.349 C62.6495,144.349 64.3135,144.003 65.6905,143.314 C67.0665,142.624 68.0985,141.672 68.7875,140.46 C69.4745,139.248 69.8195,137.899 69.8195,136.415 C69.8195,135.056 69.5405,133.906 68.9825,132.965 C68.5725,132.317 68.0095,131.899 67.2935,131.711 C66.5785,131.523 64.5085,131.429 61.0865,131.429 L56.2045,131.429 Z M75.9285,106.497 L71.2975,106.497 C71.5585,107.521 71.6885,108.472 71.6885,109.35 C71.6885,113.195 70.4675,116.059 68.0265,117.94 C65.5835,119.821 62.7285,120.761 59.4605,120.761 C58.9415,120.761 58.1795,120.72 57.1775,120.638 C56.3225,121.201 55.7795,121.649 55.5475,121.982 C55.3165,122.316 55.2005,122.691 55.2005,123.108 C55.2005,124.109 55.8235,124.714 57.0695,124.922 C57.7565,125.047 61.5335,125.109 68.3965,125.109 C70.7025,125.109 72.2965,125.334 73.1805,125.782 C74.0645,126.231 74.7945,127.029 75.3715,128.175 C75.9475,129.323 76.2365,130.803 76.2365,132.618 C76.2365,136.81 74.7565,140.323 71.7995,143.16 C68.8425,145.996 64.8435,147.414 59.8035,147.414 C55.5255,147.414 52.3345,146.575 50.2335,144.897 C48.1315,143.218 47.0815,141.075 47.0815,138.469 C47.0815,136.968 47.4065,135.717 48.0575,134.716 C48.3555,134.257 49.3775,133.465 51.1255,132.339 L53.1345,131.057 C51.6285,130.724 50.6245,130.281 50.1225,129.728 C49.6205,129.176 49.3695,128.389 49.3695,127.367 C49.3695,126.262 49.7315,124.906 50.4575,123.301 L51.3775,122.645 C52.4375,121.873 53.4425,121.039 54.3905,120.142 C52.2615,119.287 50.7255,118.129 49.7805,116.668 C48.8365,115.208 48.3645,113.372 48.3645,111.161 C48.3645,107.969 49.4585,105.346 51.6475,103.291 C53.8365,101.236 56.9075,100.209 60.8585,100.209 C62.8055,100.209 64.5215,100.428 66.0055,100.866 C67.0995,101.199 68.1945,101.793 69.2895,102.648 C73.3805,102.669 76.0495,102.607 77.2965,102.461 L77.7705,103.107 C77.2685,103.888 76.6545,105.018 75.9285,106.497 Z" id="Fill-28" fill="#000000" mask="url(#mask-6)"></path>
                <path d="M94.0361,115.2247 C90.7741,116.0187 88.6511,116.8827 87.6701,117.8127 C86.6861,118.7437 86.1961,119.9937 86.1961,121.5627 C86.1961,122.8387 86.5111,123.8427 87.1411,124.5747 C87.7711,125.3077 88.5681,125.6727 89.5321,125.6727 C90.9961,125.6727 92.4971,124.7427 94.0361,122.8807 L94.0361,115.2247 Z M104.5821,128.0817 L104.5821,130.6467 L102.4281,130.5527 C101.2901,130.4907 100.1531,130.4587 99.0151,130.4587 C97.2631,130.4587 95.6031,130.5217 94.0371,130.6467 L93.7571,130.3047 L94.0361,126.0157 L88.2161,130.8997 C87.1771,131.1687 86.2571,131.3037 85.4591,131.3037 C83.4911,131.3037 81.9691,130.6467 80.8921,129.3327 C79.8151,128.0187 79.2771,126.1007 79.2771,123.5777 C79.2771,120.4697 80.0111,118.2797 81.4761,117.0077 C83.3711,115.3397 87.5571,113.8487 94.0361,112.5337 C93.9981,110.0637 93.6181,108.2727 92.8951,107.1627 C91.8751,105.6347 90.2981,104.8697 88.1661,104.8697 C87.6641,104.8697 87.1491,104.9377 86.6211,105.0727 C86.0921,105.2087 85.5581,105.4227 85.0201,105.7147 L83.7681,109.0617 L81.8441,108.5297 L81.9001,107.1217 L81.8721,105.7457 L81.8441,104.4947 C84.6891,102.5137 86.7351,101.2727 87.9821,100.7717 C88.8921,100.3967 90.1581,100.2087 91.7761,100.2087 C93.9711,100.2087 95.7561,100.5797 97.1331,101.3217 C98.5091,102.0637 99.5141,103.0727 100.1461,104.3477 C100.7781,105.6227 101.0951,107.4827 101.0951,109.9287 C101.0951,110.9527 101.0571,112.7817 100.9821,115.4147 C100.9081,118.1327 100.8721,120.3167 100.8721,121.9677 C100.8721,124.5807 100.9361,126.1687 101.0661,126.7337 C101.1401,127.0677 101.3221,127.3287 101.6101,127.5177 C101.8991,127.7057 102.8901,127.8937 104.5821,128.0817 Z" id="Fill-29" fill="#000000" mask="url(#mask-6)"></path>
                <path d="M106.4795,105.4957 L110.1895,102.7737 C110.1485,99.0817 110.0555,95.8497 109.9115,93.0767 C112.4505,92.2007 114.8495,91.1367 117.1085,89.8857 L117.9465,90.6047 C117.5365,93.6287 117.2575,97.6857 117.1085,102.7737 C117.9635,102.9407 118.8105,103.0237 119.6475,103.0237 C121.5445,103.0237 123.2475,102.8787 124.7535,102.5857 L125.0045,102.7737 L124.7535,103.8997 C124.4745,105.0677 124.2695,106.1417 124.1395,107.1217 C121.9625,106.9557 120.3635,106.8717 119.3405,106.8717 C118.5785,106.8717 117.8335,106.9137 117.1085,106.9967 C117.0715,109.1067 117.0525,110.9667 117.0525,112.5747 C117.0525,119.5937 117.2395,123.5827 117.6115,124.5437 C117.9825,125.5047 118.8665,125.9857 120.2615,125.9857 C120.6695,125.9857 121.1125,125.9337 121.5865,125.8287 C122.0605,125.7247 122.5675,125.5787 123.1075,125.3917 L123.5815,126.5797 C122.4655,127.9777 121.3775,129.4267 120.3175,130.9287 C119.6285,131.0537 118.9965,131.1477 118.4195,131.2097 C117.8435,131.2727 117.3135,131.3037 116.8305,131.3037 C115.2675,131.3037 113.9605,131.0007 112.9105,130.3957 C111.8595,129.7897 111.0965,129.0067 110.6225,128.0467 C110.1475,127.0857 109.9115,125.6547 109.9115,123.7547 C109.9115,122.7527 109.9575,120.1217 110.0495,115.8607 C110.1425,112.1237 110.1895,109.1687 110.1895,106.9967 L108.7665,106.9337 C108.1715,106.9337 107.4095,106.9967 106.4795,107.1217 L106.4795,105.4957 Z" id="Fill-30" fill="#000000" mask="url(#mask-6)"></path>
                <path d="M141.6328,115.2247 C138.3708,116.0187 136.2488,116.8827 135.2668,117.8127 C134.2838,118.7437 133.7928,119.9937 133.7928,121.5627 C133.7928,122.8387 134.1078,123.8427 134.7378,124.5747 C135.3678,125.3077 136.1648,125.6727 137.1288,125.6727 C138.5928,125.6727 140.0938,124.7427 141.6328,122.8807 L141.6328,115.2247 Z M152.1788,128.0817 L152.1788,130.6467 L150.0248,130.5527 C148.8868,130.4907 147.7498,130.4587 146.6118,130.4587 C144.8598,130.4587 143.1998,130.5217 141.6338,130.6467 L141.3538,130.3047 L141.6328,126.0157 L135.8128,130.8997 C134.7738,131.1687 133.8538,131.3037 133.0558,131.3037 C131.0878,131.3037 129.5658,130.6467 128.4888,129.3327 C127.4118,128.0187 126.8738,126.1007 126.8738,123.5777 C126.8738,120.4697 127.6078,118.2797 129.0728,117.0077 C130.9678,115.3397 135.1538,113.8487 141.6328,112.5337 C141.5948,110.0637 141.2148,108.2727 140.4918,107.1627 C139.4718,105.6347 137.8948,104.8697 135.7628,104.8697 C135.2608,104.8697 134.7458,104.9377 134.2178,105.0727 C133.6888,105.2087 133.1548,105.4227 132.6168,105.7147 L131.3648,109.0617 L129.4408,108.5297 L129.4968,107.1217 L129.4688,105.7457 L129.4408,104.4947 C132.2858,102.5137 134.3318,101.2727 135.5788,100.7717 C136.4888,100.3967 137.7548,100.2087 139.3728,100.2087 C141.5678,100.2087 143.3528,100.5797 144.7298,101.3217 C146.1058,102.0637 147.1108,103.0727 147.7428,104.3477 C148.3748,105.6227 148.6918,107.4827 148.6918,109.9287 C148.6918,110.9527 148.6538,112.7817 148.5798,115.4147 C148.5048,118.1327 148.4688,120.3167 148.4688,121.9677 C148.4688,124.5807 148.5328,126.1687 148.6628,126.7337 C148.7368,127.0677 148.9188,127.3287 149.2068,127.5177 C149.4958,127.7057 150.4868,127.8937 152.1788,128.0817 Z" id="Fill-31" fill="#000000" mask="url(#mask-6)"></path>
            </g>
        </g>
    </g>
</svg>